%YAML 1.1
%TAG !u! tag:unity3d.com,2011:
--- !u!1045 &1
EditorBuildSettings:
  m_ObjectHideFlags: 0
  serializedVersion: 2
  m_Scenes:
  - enabled: 1
    path: Assets/Scenes/Menu.unity
    guid: e3a37539745ef0c439b22c5fb3d8c0a8
  - enabled: 1
    path: Assets/Scenes/Map_v1.unity
    guid: 5a463281e6e238742a45430f11e82829
  m_configObjects: {}
